<?xml version="1.0" encoding="UTF-8" standalone="no"?>
<!-- Created with Inkscape (http://www.inkscape.org/) -->

<svg
   width="34.606987mm"
   height="34.606983mm"
   viewBox="0 0 34.606987 34.606983"
   version="1.1"
   id="svg1"
   xmlns:inkscape="http://www.inkscape.org/namespaces/inkscape"
   xmlns:sodipodi="http://sodipodi.sourceforge.net/DTD/sodipodi-0.dtd"
   xmlns="http://www.w3.org/2000/svg"
   xmlns:svg="http://www.w3.org/2000/svg">
  <sodipodi:namedview
     id="namedview1"
     pagecolor="#505050"
     bordercolor="#eeeeee"
     borderopacity="1"
     inkscape:showpageshadow="0"
     inkscape:pageopacity="0"
     inkscape:pagecheckerboard="0"
     inkscape:deskcolor="#505050"
     inkscape:document-units="mm"
     showgrid="false"
     showguides="false"
     inkscape:zoom="8.3597643"
     inkscape:cx="256.28713"
     inkscape:cy="304.85309"
     inkscape:window-width="2560"
     inkscape:window-height="1369"
     inkscape:window-x="-8"
     inkscape:window-y="462"
     inkscape:window-maximized="1"
     inkscape:current-layer="layer1" />
  <defs
     id="defs1">
    <inkscape:path-effect
       effect="fillet_chamfer"
       id="path-effect9"
       is_visible="true"
       lpeversion="1"
       nodesatellites_param="F,0,0,1,0,0.79375,0,1 @ F,0,0,1,0,0.79375,0,1 @ F,0,0,1,0,0.79375,0,1 @ F,0,0,1,0,0.79375,0,1"
       radius="3"
       unit="px"
       method="auto"
       mode="F"
       chamfer_steps="1"
       flexible="false"
       use_knot_distance="true"
       apply_no_radius="true"
       apply_with_radius="true"
       only_selected="false"
       hide_knots="false" />
    <inkscape:path-effect
       effect="fillet_chamfer"
       id="path-effect8"
       is_visible="true"
       lpeversion="1"
       nodesatellites_param="F,0,0,1,0,0.52916667,0,1 @ F,0,0,1,0,0.52916667,0,1 @ F,0,0,1,0,0.52916667,0,1 @ F,0,0,1,0,0.52916667,0,1"
       radius="2"
       unit="px"
       method="auto"
       mode="F"
       chamfer_steps="1"
       flexible="false"
       use_knot_distance="true"
       apply_no_radius="true"
       apply_with_radius="true"
       only_selected="false"
       hide_knots="false" />
    <inkscape:path-effect
       effect="fillet_chamfer"
       id="path-effect6"
       is_visible="true"
       lpeversion="1"
       nodesatellites_param="F,0,0,1,0,0.52916667,0,1 @ F,0,0,1,0,0.52916667,0,1 @ F,0,0,1,0,0.52916667,0,1 @ F,0,0,1,0,0.52916667,0,1 @ F,0,0,1,0,0.52916667,0,1"
       radius="2"
       unit="px"
       method="auto"
       mode="F"
       chamfer_steps="1"
       flexible="false"
       use_knot_distance="true"
       apply_no_radius="true"
       apply_with_radius="true"
       only_selected="false"
       hide_knots="false" />
    <inkscape:path-effect
       effect="fillet_chamfer"
       id="path-effect9-9"
       is_visible="true"
       lpeversion="1"
       nodesatellites_param="F,0,0,1,0,0.79375,0,1 @ F,0,0,1,0,0.79375,0,1 @ F,0,0,1,0,0.79375,0,1 @ F,0,0,1,0,0.79375,0,1"
       radius="3"
       unit="px"
       method="auto"
       mode="F"
       chamfer_steps="1"
       flexible="false"
       use_knot_distance="true"
       apply_no_radius="true"
       apply_with_radius="true"
       only_selected="false"
       hide_knots="false" />
    <inkscape:path-effect
       effect="fillet_chamfer"
       id="path-effect8-8"
       is_visible="true"
       lpeversion="1"
       nodesatellites_param="F,0,0,1,0,0.52916667,0,1 @ F,0,0,1,0,0.52916667,0,1 @ F,0,0,1,0,0.52916667,0,1 @ F,0,0,1,0,0.52916667,0,1"
       radius="2"
       unit="px"
       method="auto"
       mode="F"
       chamfer_steps="1"
       flexible="false"
       use_knot_distance="true"
       apply_no_radius="true"
       apply_with_radius="true"
       only_selected="false"
       hide_knots="false" />
    <inkscape:path-effect
       effect="fillet_chamfer"
       id="path-effect6-3"
       is_visible="true"
       lpeversion="1"
       nodesatellites_param="F,0,0,1,0,0.52916667,0,1 @ F,0,0,1,0,0.52916667,0,1 @ F,0,0,1,0,0.52916667,0,1 @ F,0,0,1,0,0.52916667,0,1 @ F,0,0,1,0,0.52916667,0,1"
       radius="2"
       unit="px"
       method="auto"
       mode="F"
       chamfer_steps="1"
       flexible="false"
       use_knot_distance="true"
       apply_no_radius="true"
       apply_with_radius="true"
       only_selected="false"
       hide_knots="false" />
    <inkscape:path-effect
       effect="fillet_chamfer"
       id="path-effect9-93"
       is_visible="true"
       lpeversion="1"
       nodesatellites_param="F,0,0,1,0,0.79375,0,1 @ F,0,0,1,0,0.79375,0,1 @ F,0,0,1,0,0.79375,0,1 @ F,0,0,1,0,0.79375,0,1"
       radius="3"
       unit="px"
       method="auto"
       mode="F"
       chamfer_steps="1"
       flexible="false"
       use_knot_distance="true"
       apply_no_radius="true"
       apply_with_radius="true"
       only_selected="false"
       hide_knots="false" />
    <inkscape:path-effect
       effect="fillet_chamfer"
       id="path-effect8-5"
       is_visible="true"
       lpeversion="1"
       nodesatellites_param="F,0,0,1,0,0.52916667,0,1 @ F,0,0,1,0,0.52916667,0,1 @ F,0,0,1,0,0.52916667,0,1 @ F,0,0,1,0,0.52916667,0,1"
       radius="2"
       unit="px"
       method="auto"
       mode="F"
       chamfer_steps="1"
       flexible="false"
       use_knot_distance="true"
       apply_no_radius="true"
       apply_with_radius="true"
       only_selected="false"
       hide_knots="false" />
    <inkscape:path-effect
       effect="fillet_chamfer"
       id="path-effect6-8"
       is_visible="true"
       lpeversion="1"
       nodesatellites_param="F,0,0,1,0,0.52916667,0,1 @ F,0,0,1,0,0.52916667,0,1 @ F,0,0,1,0,0.52916667,0,1 @ F,0,0,1,0,0.52916667,0,1 @ F,0,0,1,0,0.52916667,0,1"
       radius="2"
       unit="px"
       method="auto"
       mode="F"
       chamfer_steps="1"
       flexible="false"
       use_knot_distance="true"
       apply_no_radius="true"
       apply_with_radius="true"
       only_selected="false"
       hide_knots="false" />
  </defs>
  <g
     inkscape:label="Layer 1"
     inkscape:groupmode="layer"
     id="layer1"
     transform="translate(-60.057058,-55.013296)">
    <path
       style="fill:#ffffff;fill-opacity:1;stroke:none;stroke-width:0.868011;stroke-linecap:round;stroke-linejoin:round;stroke-dasharray:none"
       id="rect1"
       width="8.1244516"
       height="9.8796015"
       x="69.305298"
       y="73.419785"
       sodipodi:type="rect"
       inkscape:path-effect="#path-effect9"
       d="m 70.099048,73.419785 6.536951,0 a 0.79375,0.79375 45 0 1 0.79375,0.79375 v 8.292101 a 0.79375,0.79375 135 0 1 -0.79375,0.79375 h -6.536951 a 0.79375,0.79375 45 0 1 -0.79375,-0.79375 v -8.292101 a 0.79375,0.79375 135 0 1 0.79375,-0.79375 z"
       transform="matrix(0.47021071,0.47021071,-0.75984351,0.75984351,96.87222,-24.940484)"
       inkscape:export-filename="ammo.svg"
       inkscape:export-xdpi="96"
       inkscape:export-ydpi="96" />
    <path
       style="fill:#ffffff;fill-opacity:1;stroke:none;stroke-width:0.786542;stroke-linecap:round;stroke-linejoin:round;stroke-dasharray:none"
       id="rect1-4"
       width="8.2209663"
       height="1.39907"
       x="69.294693"
       y="84.373039"
       sodipodi:type="rect"
       inkscape:path-effect="#path-effect8"
       d="m 69.82386,84.373039 h 7.162633 a 0.52916667,0.52916667 45 0 1 0.529166,0.529167 v 0.340737 a 0.52916667,0.52916667 135 0 1 -0.529166,0.529166 l -7.162633,0 a 0.52916667,0.52916667 45 0 1 -0.529167,-0.529166 v -0.340737 a 0.52916667,0.52916667 135 0 1 0.529167,-0.529167 z"
       transform="matrix(0.45210824,0.45210824,-0.94892372,0.94892372,114.36157,-39.74244)" />
    <path
       style="fill:#ffffff;fill-opacity:1;stroke:none;stroke-width:0.766756;stroke-linecap:round;stroke-linejoin:round;stroke-dasharray:none"
       id="path1"
       sodipodi:type="arc"
       sodipodi:cx="-73.438225"
       sodipodi:cy="-75.122597"
       sodipodi:rx="3.2310338"
       sodipodi:ry="5.9056559"
       sodipodi:start="0"
       sodipodi:end="3.1415927"
       sodipodi:arc-type="slice"
       d="m -70.220143,-74.593642 c -0.08145,1.658483 -0.542837,3.175457 -1.26619,4.1774 -0.170968,0.236813 -0.496124,0.586133 -0.729982,0.760815 -0.782708,0.584651 -1.661124,0.584648 -2.443831,-8e-6 -0.233851,-0.174679 -0.558978,-0.523969 -0.729924,-0.760743 -0.723369,-1.001926 -1.184776,-2.518897 -1.266233,-4.177384 -0.01434,-0.291914 0.22396,-0.529035 0.516211,-0.529035 h 2.172701 3.231033 c 0.292251,0 0.530548,0.237086 0.516215,0.528955 z"
       transform="matrix(-0.48134601,-0.48134601,0.72319417,-0.72319417,95.077259,-24.765694)"
       inkscape:path-effect="#path-effect6" />
    <path
       style="fill:#ffffff;fill-opacity:1;stroke:none;stroke-width:0.868011;stroke-linecap:round;stroke-linejoin:round;stroke-dasharray:none"
       id="rect1-5"
       width="8.1244516"
       height="9.8796015"
       x="69.305298"
       y="73.419785"
       sodipodi:type="rect"
       inkscape:path-effect="#path-effect9-9"
       d="m 70.099048,73.419785 6.536951,0 a 0.79375,0.79375 45 0 1 0.79375,0.79375 v 8.292101 a 0.79375,0.79375 135 0 1 -0.79375,0.79375 h -6.536951 a 0.79375,0.79375 45 0 1 -0.79375,-0.79375 v -8.292101 a 0.79375,0.79375 135 0 1 0.79375,-0.79375 z"
       transform="matrix(0.47021071,0.47021071,-0.75984351,0.75984351,101.1239,-20.600134)" />
    <path
       style="fill:#ffffff;fill-opacity:1;stroke:none;stroke-width:0.786542;stroke-linecap:round;stroke-linejoin:round;stroke-dasharray:none"
       id="rect1-4-6"
       width="8.2209663"
       height="1.39907"
       x="69.294693"
       y="84.373039"
       sodipodi:type="rect"
       inkscape:path-effect="#path-effect8-8"
       d="m 69.82386,84.373039 h 7.162633 a 0.52916667,0.52916667 45 0 1 0.529166,0.529167 v 0.340737 a 0.52916667,0.52916667 135 0 1 -0.529166,0.529166 l -7.162633,0 a 0.52916667,0.52916667 45 0 1 -0.529167,-0.529166 v -0.340737 a 0.52916667,0.52916667 135 0 1 0.529167,-0.529167 z"
       transform="matrix(0.45210824,0.45210824,-0.94892372,0.94892372,118.61325,-35.402091)" />
    <path
       style="fill:#ffffff;fill-opacity:1;stroke:none;stroke-width:0.766756;stroke-linecap:round;stroke-linejoin:round;stroke-dasharray:none"
       id="path1-1"
       sodipodi:type="arc"
       sodipodi:cx="-73.438225"
       sodipodi:cy="-75.122597"
       sodipodi:rx="3.2310338"
       sodipodi:ry="5.9056559"
       sodipodi:start="0"
       sodipodi:end="3.1415927"
       sodipodi:arc-type="slice"
       d="m -70.220143,-74.593642 c -0.08145,1.658483 -0.542837,3.175457 -1.26619,4.1774 -0.170968,0.236813 -0.496124,0.586133 -0.729982,0.760815 -0.782708,0.584651 -1.661124,0.584648 -2.443831,-8e-6 -0.233851,-0.174679 -0.558978,-0.523969 -0.729924,-0.760743 -0.723369,-1.001926 -1.184776,-2.518897 -1.266233,-4.177384 -0.01434,-0.291914 0.22396,-0.529035 0.516211,-0.529035 h 2.172701 3.231033 c 0.292251,0 0.530548,0.237086 0.516215,0.528955 z"
       transform="matrix(-0.48134601,-0.48134601,0.72319417,-0.72319417,99.328939,-20.425345)"
       inkscape:path-effect="#path-effect6-3" />
    <path
       style="fill:#ffffff;fill-opacity:1;stroke:none;stroke-width:0.868011;stroke-linecap:round;stroke-linejoin:round;stroke-dasharray:none"
       id="rect1-59"
       width="8.1244516"
       height="9.8796015"
       x="69.305298"
       y="73.419785"
       sodipodi:type="rect"
       inkscape:path-effect="#path-effect9-93"
       d="m 70.099048,73.419785 6.536951,0 a 0.79375,0.79375 45 0 1 0.79375,0.79375 v 8.292101 a 0.79375,0.79375 135 0 1 -0.79375,0.79375 h -6.536951 a 0.79375,0.79375 45 0 1 -0.79375,-0.79375 v -8.292101 a 0.79375,0.79375 135 0 1 0.79375,-0.79375 z"
       transform="matrix(0.47021071,0.47021071,-0.75984351,0.75984351,105.35864,-16.363341)" />
    <path
       style="fill:#ffffff;fill-opacity:1;stroke:none;stroke-width:0.786542;stroke-linecap:round;stroke-linejoin:round;stroke-dasharray:none"
       id="rect1-4-8"
       width="8.2209663"
       height="1.39907"
       x="69.294693"
       y="84.373039"
       sodipodi:type="rect"
       inkscape:path-effect="#path-effect8-5"
       d="m 69.82386,84.373039 h 7.162633 a 0.52916667,0.52916667 45 0 1 0.529166,0.529167 v 0.340737 a 0.52916667,0.52916667 135 0 1 -0.529166,0.529166 l -7.162633,0 a 0.52916667,0.52916667 45 0 1 -0.529167,-0.529166 v -0.340737 a 0.52916667,0.52916667 135 0 1 0.529167,-0.529167 z"
       transform="matrix(0.45210824,0.45210824,-0.94892372,0.94892372,122.848,-31.165299)" />
    <path
       style="fill:#ffffff;fill-opacity:1;stroke:none;stroke-width:0.766756;stroke-linecap:round;stroke-linejoin:round;stroke-dasharray:none"
       id="path1-0"
       sodipodi:type="arc"
       sodipodi:cx="-73.438225"
       sodipodi:cy="-75.122597"
       sodipodi:rx="3.2310338"
       sodipodi:ry="5.9056559"
       sodipodi:start="0"
       sodipodi:end="3.1415927"
       sodipodi:arc-type="slice"
       d="m -70.220143,-74.593642 c -0.08145,1.658483 -0.542837,3.175457 -1.26619,4.1774 -0.170968,0.236813 -0.496124,0.586133 -0.729982,0.760815 -0.782708,0.584651 -1.661124,0.584648 -2.443831,-8e-6 -0.233851,-0.174679 -0.558978,-0.523969 -0.729924,-0.760743 -0.723369,-1.001926 -1.184776,-2.518897 -1.266233,-4.177384 -0.01434,-0.291914 0.22396,-0.529035 0.516211,-0.529035 h 2.172701 3.231033 c 0.292251,0 0.530548,0.237086 0.516215,0.528955 z"
       transform="matrix(-0.48134601,-0.48134601,0.72319417,-0.72319417,103.56368,-16.188552)"
       inkscape:path-effect="#path-effect6-8" />
    <circle
       style="fill:none;fill-opacity:1;stroke:#ffffff;stroke-width:3.27073;stroke-linecap:round;stroke-linejoin:round;stroke-dasharray:none;stroke-opacity:1"
       id="path15"
       cx="77.36055"
       cy="72.316788"
       r="15.668127" />
  </g>
</svg>
