<?xml version="1.0" encoding="UTF-8" standalone="no"?>
<!-- Created with Inkscape (http://www.inkscape.org/) -->

<svg
   width="34.28627mm"
   height="34.28627mm"
   viewBox="0 0 34.28627 34.28627"
   version="1.1"
   id="svg1"
   xmlns:inkscape="http://www.inkscape.org/namespaces/inkscape"
   xmlns:sodipodi="http://sodipodi.sourceforge.net/DTD/sodipodi-0.dtd"
   xmlns="http://www.w3.org/2000/svg"
   xmlns:svg="http://www.w3.org/2000/svg">
  <sodipodi:namedview
     id="namedview1"
     pagecolor="#505050"
     bordercolor="#eeeeee"
     borderopacity="1"
     inkscape:showpageshadow="0"
     inkscape:pageopacity="0"
     inkscape:pagecheckerboard="0"
     inkscape:deskcolor="#505050"
     inkscape:document-units="mm"
     showgrid="false"
     showguides="false"
     inkscape:zoom="8.3597643"
     inkscape:cx="256.28713"
     inkscape:cy="304.85309"
     inkscape:window-width="2560"
     inkscape:window-height="1369"
     inkscape:window-x="-8"
     inkscape:window-y="462"
     inkscape:window-maximized="1"
     inkscape:current-layer="layer1" />
  <defs
     id="defs1" />
  <g
     inkscape:label="Layer 1"
     inkscape:groupmode="layer"
     id="layer1"
     transform="translate(-107.05201,-118.95826)">
    <g
       id="g18"
       inkscape:export-filename="crosshair.svg"
       inkscape:export-xdpi="96"
       inkscape:export-ydpi="96">
      <path
         id="path18-7-5"
         style="fill:none;fill-opacity:1;stroke:#ff0000;stroke-width:2.96869;stroke-linecap:round;stroke-linejoin:round;stroke-dasharray:none;stroke-opacity:1"
         d="m 114.02057,125.6923 3.96372,3.96373 m 13.13382,13.18164 3.93279,3.93279 m -21.36255,0.18986 3.99466,-3.99466 m 12.83323,-12.78541 4.15108,-4.15107 m 0.60687,21.15126 a 15.668127,15.668127 0 0 1 -22.15808,0 15.668127,15.668127 0 0 1 10e-6,-22.15807 15.668127,15.668127 0 0 1 22.15807,-10e-6 15.668127,15.668127 0 0 1 0,22.15808 z" />
    </g>
  </g>
</svg>
