<?xml version="1.0" encoding="UTF-8" standalone="no"?>
<!-- Created with Inkscape (http://www.inkscape.org/) -->

<svg
   width="151.18803mm"
   height="72.368454mm"
   viewBox="0 0 151.18803 72.368455"
   version="1.1"
   id="svg6301"
   sodipodi:docname="logo.svg"
   inkscape:export-filename="logo.svg"
   inkscape:export-xdpi="96"
   inkscape:export-ydpi="96"
   xml:space="preserve"
   inkscape:version="1.2.1 (9c6d41e410, 2022-07-14)"
   xmlns:inkscape="http://www.inkscape.org/namespaces/inkscape"
   xmlns:sodipodi="http://sodipodi.sourceforge.net/DTD/sodipodi-0.dtd"
   xmlns="http://www.w3.org/2000/svg"
   xmlns:svg="http://www.w3.org/2000/svg"><sodipodi:namedview
     id="namedview6303"
     pagecolor="#505050"
     bordercolor="#ffffff"
     borderopacity="1"
     inkscape:showpageshadow="0"
     inkscape:pageopacity="0"
     inkscape:pagecheckerboard="1"
     inkscape:deskcolor="#505050"
     inkscape:document-units="mm"
     showgrid="false"
     inkscape:zoom="0.71685347"
     inkscape:cx="306.89675"
     inkscape:cy="214.82772"
     inkscape:window-width="2560"
     inkscape:window-height="1377"
     inkscape:window-x="-8"
     inkscape:window-y="-8"
     inkscape:window-maximized="1"
     inkscape:current-layer="layer1"
     showguides="false" /><defs
     id="defs6298"><inkscape:path-effect
       effect="spiro"
       id="path-effect5080"
       is_visible="true"
       lpeversion="1" /><inkscape:path-effect
       effect="spiro"
       id="path-effect3683"
       is_visible="true"
       lpeversion="1" /><inkscape:path-effect
       effect="spiro"
       id="path-effect8022"
       is_visible="true"
       lpeversion="1" /><inkscape:path-effect
       effect="spiro"
       id="path-effect7300"
       is_visible="true"
       lpeversion="1" /><inkscape:path-effect
       effect="spiro"
       id="path-effect4380"
       is_visible="true"
       lpeversion="1" /><inkscape:path-effect
       effect="spiro"
       id="path-effect3648"
       is_visible="true"
       lpeversion="1" /><inkscape:path-effect
       effect="spiro"
       id="path-effect3590"
       is_visible="true"
       lpeversion="1" /><inkscape:path-effect
       effect="spiro"
       id="path-effect3478"
       is_visible="true"
       lpeversion="1" /><inkscape:path-effect
       effect="bspline"
       id="path-effect3474"
       is_visible="true"
       lpeversion="1"
       weight="33.333333"
       steps="2"
       helper_size="0"
       apply_no_weight="true"
       apply_with_weight="true"
       only_selected="false" /><inkscape:path-effect
       effect="bspline"
       id="path-effect5315"
       is_visible="true"
       lpeversion="1"
       weight="33.333333"
       steps="2"
       helper_size="0"
       apply_no_weight="true"
       apply_with_weight="true"
       only_selected="false" /><inkscape:path-effect
       effect="spiro"
       id="path-effect2708"
       is_visible="true"
       lpeversion="1" /><inkscape:path-effect
       effect="spiro"
       id="path-effect2708-5"
       is_visible="true"
       lpeversion="1" /><inkscape:path-effect
       effect="spiro"
       id="path-effect2708-9"
       is_visible="true"
       lpeversion="1" /><inkscape:path-effect
       effect="spiro"
       id="path-effect2708-5-5"
       is_visible="true"
       lpeversion="1" /><inkscape:path-effect
       effect="spiro"
       id="path-effect3590-2"
       is_visible="true"
       lpeversion="1" /><inkscape:path-effect
       effect="spiro"
       id="path-effect3648-3"
       is_visible="true"
       lpeversion="1" /><inkscape:path-effect
       effect="spiro"
       id="path-effect4380-1"
       is_visible="true"
       lpeversion="1" /><inkscape:path-effect
       effect="spiro"
       id="path-effect3683-9"
       is_visible="true"
       lpeversion="1" /><inkscape:path-effect
       effect="spiro"
       id="path-effect5080-4"
       is_visible="true"
       lpeversion="1" /></defs><g
     inkscape:label="Ebene 1"
     inkscape:groupmode="layer"
     id="layer1"
     transform="translate(-219.41735,-107.42738)"><g
       id="g19004"
       inkscape:label="Logo"
       inkscape:export-filename="logo.svg"
       inkscape:export-xdpi="96"
       inkscape:export-ydpi="96"><g
         id="g19982"
         transform="translate(16.880186,-14.75355)"><path
           style="fill:#4dc3c3;fill-opacity:1;stroke:none;stroke-width:2.07463;stroke-linecap:round;stroke-dasharray:none;stroke-opacity:1"
           d="m 246.21376,184.58647 29.36159,-4.57858 9.31664,5.38656 -34.16106,4.84789 z"
           id="path19862-2" /><path
           style="fill:#4dc3c3;fill-opacity:1;stroke:none;stroke-width:1.71104;stroke-linecap:round;stroke-dasharray:none;stroke-opacity:1"
           d="m 239.7674,177.40344 24.21575,-3.77614 7.68382,4.44252 -28.17407,3.99826 z"
           id="path19862-2-1" /><path
           style="fill:#4dc3c3;fill-opacity:1;stroke:none;stroke-width:1.36883;stroke-linecap:round;stroke-dasharray:none;stroke-opacity:1"
           d="m 234.25144,171.19255 19.3726,-3.02091 6.14705,3.55401 -22.53925,3.19861 z"
           id="path19862-2-1-2" /><path
           style="fill:#4dc3c3;fill-opacity:1;stroke:none;stroke-width:1.16921;stroke-linecap:round;stroke-dasharray:none;stroke-opacity:1"
           d="m 228.80192,165.09101 16.54743,-2.58037 5.25061,3.03573 -19.25228,2.73214 z"
           id="path19862-2-1-3" /></g><path
         style="fill:#9bb798;fill-opacity:1;stroke:none;stroke-width:1;stroke-linecap:round;stroke-dasharray:none;stroke-opacity:1"
         d="m 288.15046,107.42738 26.31581,72.36845 41.9173,-63.9098 z"
         id="path5320"
         inkscape:export-filename="logo.svg"
         inkscape:export-xdpi="96"
         inkscape:export-ydpi="96" /><circle
         style="fill:#b4a7d6;fill-opacity:1;stroke:none;stroke-width:1.35223;stroke-linecap:round;stroke-dasharray:none;stroke-opacity:1"
         id="path20041"
         cx="231.7925"
         cy="132.49084"
         r="11.098392" /><circle
         style="fill:#ff7b71;fill-opacity:1;stroke:none;stroke-width:3;stroke-linecap:round;stroke-dasharray:none;stroke-opacity:1"
         id="path2762"
         cx="294.7294"
         cy="143.89355"
         r="24.436098" /><path
         style="fill:none;fill-opacity:1;stroke:#000000;stroke-width:1;stroke-linecap:round;stroke-dasharray:none;stroke-opacity:1"
         d="m 219.91735,131.86348 c 25.56424,11.71694 51.12816,23.43374 63.90996,29.0729 12.7818,5.63915 12.7818,5.20056 9.42965,-4.98132 -3.35214,-10.18189 -10.05627,-30.1063 -1.87924,-32.01722 8.17702,-1.91092 31.23421,14.19152 46.83577,21.99216 15.60155,7.80063 23.74678,7.29939 31.89189,6.79815"
         id="path5313"
         inkscape:path-effect="#path-effect5315"
         inkscape:original-d="m 219.91735,131.86348 c 25.56419,11.71706 51.12811,23.43386 76.69176,35.15039 2.7e-4,-0.43834 2.7e-4,-0.87693 0,-1.31579 -6.70413,-19.92496 -13.40826,-39.84937 -20.11279,-59.77446 23.05839,16.10335 46.11558,32.20579 69.17296,48.30829 8.14578,-0.501 16.29101,-1.00224 24.4361,-1.50376" /><g
         id="g5003"
         transform="rotate(71.344018,312.23888,126.04669)"><rect
           style="fill:#fbe554;fill-opacity:1;stroke:none;stroke-width:0.552918;stroke-linecap:round;stroke-dasharray:none;stroke-opacity:1"
           id="rect4896"
           width="4.1572824"
           height="4.1572824"
           x="293.60159"
           y="161.37477"
           ry="0"
           rx="0" /><rect
           style="fill:#fbe554;fill-opacity:1;stroke:none;stroke-width:0.552918;stroke-linecap:round;stroke-dasharray:none;stroke-opacity:1"
           id="rect4896-9"
           width="4.1572824"
           height="4.1572824"
           x="299.0322"
           y="161.37958"
           ry="0"
           rx="0" /><rect
           style="fill:#fbe554;fill-opacity:1;stroke:none;stroke-width:0.552918;stroke-linecap:round;stroke-dasharray:none;stroke-opacity:1"
           id="rect4896-6"
           width="4.1572824"
           height="4.1572824"
           x="304.37689"
           y="161.38872"
           ry="0"
           rx="0" /><rect
           style="fill:#fbe554;fill-opacity:1;stroke:none;stroke-width:0.552918;stroke-linecap:round;stroke-dasharray:none;stroke-opacity:1"
           id="rect4896-9-9"
           width="4.1572824"
           height="4.1572824"
           x="309.80746"
           y="161.39352"
           ry="0"
           rx="0" /></g><path
         style="fill:none;fill-opacity:0.658451;stroke:#f07aac;stroke-width:4.53561;stroke-linecap:butt;stroke-dasharray:none;stroke-opacity:1"
         d="m 322.9182,176.03044 15.27477,-2.43146 -2.05194,-14.16979 13.90243,-2.21302 -1.88815,-13.03858 10.74009,-1.70964 -1.72432,-11.90738"
         id="path2411-4"
         inkscape:export-filename="special_square.svg"
         inkscape:export-xdpi="96"
         inkscape:export-ydpi="96" /><g
         id="g5394-7"
         transform="matrix(0.70793073,0,0,0.58463111,100.81247,21.922801)"
         style="display:inline;stroke:#513c82;stroke-opacity:0.626761"><g
           id="g5347-8"
           transform="translate(-154.1354,-26.12783)"
           style="stroke:#513c82;stroke-opacity:0.626761"><circle
             style="fill:none;stroke:#513c82;stroke-width:2.5;stroke-linecap:round;stroke-opacity:0.626761"
             id="path7373-7"
             cx="385.71237"
             cy="242.91966"
             r="7.3743911" /><path
             style="fill:none;stroke:#513c82;stroke-width:2.5;stroke-linecap:round;stroke-opacity:0.626761"
             d="m 393.27371,233.87727 -0.15337,17.3004"
             id="path7375-3"
             sodipodi:nodetypes="cc" /></g><path
           style="fill:none;stroke:#513c82;stroke-width:2.5;stroke-linecap:round;stroke-opacity:0.626761"
           d="m 246.71842,206.11706 -0.15336,17.30039"
           id="path7375-8-6"
           sodipodi:nodetypes="cc" /><path
           style="fill:none;stroke:#513c82;stroke-width:2.5;stroke-linecap:round;stroke-opacity:0.626761"
           d="m 246.47933,199.84865 v 2.57715"
           id="path7375-8-2-1"
           sodipodi:nodetypes="cc" /><path
           style="fill:none;stroke:#513c82;stroke-width:2.5;stroke-linecap:round;stroke-opacity:0.626761"
           d="m 289.12145,207.73523 -0.15337,17.3004"
           id="path7375-8-4-3"
           sodipodi:nodetypes="cc" /><path
           style="fill:none;stroke:#513c82;stroke-width:2.5;stroke-linecap:round;stroke-opacity:0.626761"
           d="m 289.07033,200.52698 v 2.57714"
           id="path7375-8-2-0-3"
           sodipodi:nodetypes="cc" /><path
           style="fill:none;stroke:#513c82;stroke-width:2.5;stroke-linecap:round;stroke-opacity:0.626761"
           d="m 255.47286,196.94807 -0.15337,25.7867"
           id="path7375-7-2"
           sodipodi:nodetypes="cc" /><path
           style="fill:none;stroke:#513c82;stroke-width:2.5;stroke-linecap:round;stroke-opacity:0.626761"
           d="m 218.35577,207.94788 -0.15337,25.78671"
           id="path7375-7-4-9"
           sodipodi:nodetypes="cc" /><path
           style="fill:none;stroke:#513c82;stroke-width:2.5;stroke-linecap:round;stroke-opacity:0.626761"
           d="m 278.85142,200.46838 -0.15336,25.7867"
           id="path7375-7-4-8-2"
           sodipodi:nodetypes="cc" /><g
           id="g7557-4"
           inkscape:export-filename="logo.svg"
           inkscape:export-xdpi="96"
           inkscape:export-ydpi="96"
           transform="translate(204.08876,110.96205)"
           style="stroke:#513c82;stroke-opacity:0.626761"><path
             style="color:#000000;fill:none;stroke:#513c82;stroke-width:2.5;stroke-linecap:round;stroke-dasharray:none;stroke-opacity:0.626761"
             d="m 98.614154,96.207968 c -3.3508,0 -6.093756,2.74295 -6.093756,6.093752 l -0.05131,10.48309 m 12.238822,-10.48309 c 0,-3.350802 -2.74296,-6.093752 -6.093754,-6.093752"
             id="path7549-9"
             sodipodi:nodetypes="ccccc" /><path
             style="color:#000000;fill:none;stroke:#513c82;stroke-width:2.5;stroke-linecap:round;stroke-dasharray:none;stroke-opacity:0.626761"
             d="m 110.78612,95.71078 c -3.3508,0 -6.09375,2.74295 -6.09375,6.09375 -0.0171,3.16435 -0.0342,-0.71199 -0.0513,10.48309 m 12.23882,-10.48309 c 0,-3.3508 -2.74296,-6.09375 -6.09376,-6.09375"
             id="path7549-1-0"
             sodipodi:nodetypes="ccccc" /><path
             style="fill:none;stroke:#513c82;stroke-width:2.5;stroke-linecap:round;stroke-opacity:0.626761"
             d="M 116.95606,112.92714 116.8027,95.626752"
             id="path7375-8-4-8-1"
             sodipodi:nodetypes="cc" /><g
             id="g7685-1"
             transform="matrix(1.1438528,0,0,1.1536514,-20.697811,-10.284646)"
             style="stroke:#513c82;stroke-opacity:0.626761"><path
               style="color:#000000;fill:none;stroke:#513c82;stroke-width:2.17629;stroke-linecap:round;stroke-dasharray:none;stroke-opacity:0.626761"
               d="m 124.76753,101.23459 c -0.44268,-0.86864 -0.69187,-1.854382 -0.69187,-2.901524 0,-3.530408 2.83248,-6.362878 6.36289,-6.362878 2.92473,0 5.37047,1.943982 6.12356,4.618296 z"
               id="path7606-5"
               sodipodi:nodetypes="cssc" /><path
               style="color:#000000;fill:none;stroke:#513c82;stroke-width:2.17629;stroke-linecap:round;stroke-dasharray:none;stroke-opacity:0.626761"
               d="m 131.78935,105.45898 c -2.89245,0.42964 -5.60169,-1.1336 -6.74608,-3.66777"
               id="path7606-9-7"
               sodipodi:nodetypes="cc" /></g></g><path
           style="fill:none;fill-opacity:0.658451;stroke:#513c82;stroke-width:3;stroke-linecap:round;stroke-dasharray:none;stroke-opacity:0.626761"
           d="m 201.30833,213.8184 c 17.88546,-12.58817 38.36379,-21.47499 59.77445,-25.93986 11.23927,-2.34378 22.72991,-3.48022 34.21055,-3.38346"
           id="path2706-3"
           inkscape:path-effect="#path-effect2708-9"
           inkscape:original-d="m 201.30833,213.8184 c 19.86243,-8.64636 39.8499,-17.29298 59.77445,-25.93986 19.92456,-8.64689 22.8073,-2.25538 34.21055,-3.38346" /><path
           style="fill:none;fill-opacity:0.658451;stroke:#513c82;stroke-width:3;stroke-linecap:round;stroke-dasharray:none;stroke-opacity:0.626761"
           d="m 264.72959,199.84426 c 21.11546,-5.69991 43.39902,-7.03422 65.04377,-3.89473 11.36216,1.64804 22.54689,4.51648 33.29981,8.54009"
           id="path2706-1-1"
           inkscape:path-effect="#path-effect2708-5-5"
           inkscape:original-d="m 264.72959,199.84426 c 21.62256,-1.31936 43.36268,-2.59615 65.04377,-3.89473 21.68111,-1.29858 22.20003,5.69373 33.29981,8.54009" /></g><g
         id="g5394"
         transform="matrix(0.70793072,0,0,0.58463112,101.53295,20.453281)"><g
           id="g5347"
           transform="translate(-154.1354,-26.12783)"><circle
             style="fill:none;stroke:#ffffff;stroke-width:2.5;stroke-linecap:round;stroke-opacity:1"
             id="path7373"
             cx="385.71237"
             cy="242.91966"
             r="7.3743911" /><path
             style="fill:none;stroke:#ffffff;stroke-width:2.5;stroke-linecap:round;stroke-opacity:1"
             d="m 393.27371,233.87727 -0.15337,17.3004"
             id="path7375"
             sodipodi:nodetypes="cc" /></g><path
           style="fill:none;stroke:#ffffff;stroke-width:2.5;stroke-linecap:round;stroke-opacity:1"
           d="m 246.71842,206.11706 -0.15336,17.30039"
           id="path7375-8"
           sodipodi:nodetypes="cc" /><path
           style="fill:none;stroke:#ffffff;stroke-width:2.5;stroke-linecap:round;stroke-opacity:1"
           d="m 246.47933,199.84865 v 2.57715"
           id="path7375-8-2"
           sodipodi:nodetypes="cc" /><path
           style="fill:none;stroke:#ffffff;stroke-width:2.5;stroke-linecap:round;stroke-opacity:1"
           d="m 289.12145,207.73523 -0.15337,17.3004"
           id="path7375-8-4"
           sodipodi:nodetypes="cc" /><path
           style="fill:none;stroke:#ffffff;stroke-width:2.5;stroke-linecap:round;stroke-opacity:1"
           d="m 289.07033,200.52698 v 2.57714"
           id="path7375-8-2-0"
           sodipodi:nodetypes="cc" /><path
           style="fill:none;stroke:#ffffff;stroke-width:2.5;stroke-linecap:round;stroke-opacity:1"
           d="m 255.47286,196.94807 -0.15337,25.7867"
           id="path7375-7"
           sodipodi:nodetypes="cc" /><path
           style="fill:none;stroke:#ffffff;stroke-width:2.5;stroke-linecap:round;stroke-opacity:1"
           d="m 218.35577,207.94788 -0.15337,25.78671"
           id="path7375-7-4"
           sodipodi:nodetypes="cc" /><path
           style="fill:none;stroke:#ffffff;stroke-width:2.5;stroke-linecap:round;stroke-opacity:1"
           d="m 278.85142,200.46838 -0.15336,25.7867"
           id="path7375-7-4-8"
           sodipodi:nodetypes="cc" /><g
           id="g7557"
           inkscape:export-filename="logo.svg"
           inkscape:export-xdpi="96"
           inkscape:export-ydpi="96"
           transform="translate(204.08876,110.96205)"><path
             style="color:#000000;fill:none;stroke:#ffffff;stroke-width:2.5;stroke-linecap:round;stroke-dasharray:none;stroke-opacity:1"
             d="m 98.614154,96.207968 c -3.3508,0 -6.093756,2.74295 -6.093756,6.093752 l -0.05131,10.48309 m 12.238822,-10.48309 c 0,-3.350802 -2.74296,-6.093752 -6.093754,-6.093752"
             id="path7549"
             sodipodi:nodetypes="ccccc" /><path
             style="color:#000000;fill:none;stroke:#ffffff;stroke-width:2.5;stroke-linecap:round;stroke-dasharray:none;stroke-opacity:1"
             d="m 110.78612,95.71078 c -3.3508,0 -6.09375,2.74295 -6.09375,6.09375 -0.0171,3.16435 -0.0342,-0.71199 -0.0513,10.48309 m 12.23882,-10.48309 c 0,-3.3508 -2.74296,-6.09375 -6.09376,-6.09375"
             id="path7549-1"
             sodipodi:nodetypes="ccccc" /><path
             style="fill:none;stroke:#ffffff;stroke-width:2.5;stroke-linecap:round;stroke-opacity:1"
             d="M 116.95606,112.92714 116.8027,95.626752"
             id="path7375-8-4-8"
             sodipodi:nodetypes="cc" /><g
             id="g7685"
             transform="matrix(1.1438528,0,0,1.1536514,-20.697811,-10.284646)"><path
               style="color:#000000;fill:none;stroke:#ffffff;stroke-width:2.17629;stroke-linecap:round;stroke-dasharray:none;stroke-opacity:1"
               d="m 124.76753,101.23459 c -0.44268,-0.86864 -0.69187,-1.854382 -0.69187,-2.901524 0,-3.530408 2.83248,-6.362878 6.36289,-6.362878 2.92473,0 5.37047,1.943982 6.12356,4.618296 z"
               id="path7606"
               sodipodi:nodetypes="cssc" /><path
               style="color:#000000;fill:none;stroke:#ffffff;stroke-width:2.17629;stroke-linecap:round;stroke-dasharray:none;stroke-opacity:1"
               d="m 131.78935,105.45898 c -2.89245,0.42964 -5.60169,-1.1336 -6.74608,-3.66777"
               id="path7606-9"
               sodipodi:nodetypes="cc" /></g></g><path
           style="fill:none;fill-opacity:0.658451;stroke:#ffffff;stroke-width:3;stroke-linecap:round;stroke-dasharray:none;stroke-opacity:1"
           d="m 201.30833,213.8184 c 17.88546,-12.58817 38.36379,-21.47499 59.77445,-25.93986 11.23927,-2.34378 22.72991,-3.48022 34.21055,-3.38346"
           id="path2706"
           inkscape:path-effect="#path-effect2708"
           inkscape:original-d="m 201.30833,213.8184 c 19.86243,-8.64636 39.8499,-17.29298 59.77445,-25.93986 19.92456,-8.64689 22.8073,-2.25538 34.21055,-3.38346" /><path
           style="fill:none;fill-opacity:0.658451;stroke:#ffffff;stroke-width:3;stroke-linecap:round;stroke-dasharray:none;stroke-opacity:1"
           d="m 264.72959,199.84426 c 21.11546,-5.69991 43.39902,-7.03422 65.04377,-3.89473 11.36216,1.64804 22.54689,4.51648 33.29981,8.54009"
           id="path2706-1"
           inkscape:path-effect="#path-effect2708-5"
           inkscape:original-d="m 264.72959,199.84426 c 21.62256,-1.31936 43.36268,-2.59615 65.04377,-3.89473 21.68111,-1.29858 22.20003,5.69373 33.29981,8.54009" /></g><g
         id="g2170-9"
         transform="matrix(0.31094394,0.87964671,-0.54979983,0.49749162,-99.548812,98.57139)"
         style="fill:#000000;fill-opacity:1" /><g
         id="g2170"
         transform="matrix(0.31094394,0.87964671,-0.54979983,0.49749162,-99.571881,97.671735)"><ellipse
           style="fill:#513c82;fill-opacity:0.62692308;stroke:none;stroke-width:7.79295;stroke-linecap:round"
           id="path954-9"
           cx="539.56409"
           cy="48.933929"
           transform="rotate(-60.509304,0.74485157,-0.47642439)"
           rx="1.607874"
           ry="1.004959" /><ellipse
           style="fill:#513c82;fill-opacity:0.626923;stroke:none;stroke-width:7.79295;stroke-linecap:round"
           id="path954-7-3"
           cx="535.28918"
           cy="51.531525"
           transform="rotate(-60.509304)"
           rx="1.607874"
           ry="1.004959" /><ellipse
           style="fill:#513c82;fill-opacity:0.626923;stroke:none;stroke-width:7.79295;stroke-linecap:round"
           id="path954-4-3"
           cx="530.62506"
           cy="53.575874"
           transform="rotate(-60.509304)"
           rx="1.607874"
           ry="1.004959" /><ellipse
           style="fill:#ffffff;fill-opacity:1;stroke:none;stroke-width:7.79295;stroke-linecap:round"
           id="path954"
           cx="539.56409"
           cy="48.933929"
           transform="rotate(-60.509304)"
           rx="1.607874"
           ry="1.004959" /><ellipse
           style="fill:#ffffff;fill-opacity:1;stroke:none;stroke-width:7.79295;stroke-linecap:round"
           id="path954-7"
           cx="535.25269"
           cy="50.641289"
           transform="rotate(-60.509304)"
           rx="1.607874"
           ry="1.004959" /><ellipse
           style="fill:#ffffff;fill-opacity:1;stroke:none;stroke-width:7.79295;stroke-linecap:round"
           id="path954-4"
           cx="530.58856"
           cy="52.685638"
           transform="rotate(-60.509304)"
           rx="1.607874"
           ry="1.004959" /></g></g></g></svg>
