<?xml version="1.0" encoding="UTF-8" standalone="no"?>
<!-- Created with Inkscape (http://www.inkscape.org/) -->

<svg
   width="34.606983mm"
   height="34.606983mm"
   viewBox="0 0 34.606983 34.606983"
   version="1.1"
   id="svg1"
   sodipodi:docname="special.svg"
   xmlns:inkscape="http://www.inkscape.org/namespaces/inkscape"
   xmlns:sodipodi="http://sodipodi.sourceforge.net/DTD/sodipodi-0.dtd"
   xmlns="http://www.w3.org/2000/svg"
   xmlns:svg="http://www.w3.org/2000/svg">
  <sodipodi:namedview
     id="namedview1"
     pagecolor="#505050"
     bordercolor="#eeeeee"
     borderopacity="1"
     inkscape:showpageshadow="0"
     inkscape:pageopacity="0"
     inkscape:pagecheckerboard="0"
     inkscape:deskcolor="#505050"
     inkscape:document-units="mm"
     showgrid="false"
     showguides="false"
     inkscape:zoom="8.3597643"
     inkscape:cx="256.28713"
     inkscape:cy="304.85309"
     inkscape:window-width="2560"
     inkscape:window-height="1369"
     inkscape:window-x="-8"
     inkscape:window-y="462"
     inkscape:window-maximized="1"
     inkscape:current-layer="layer1" />
  <defs
     id="defs1" />
  <g
     inkscape:label="Layer 1"
     inkscape:groupmode="layer"
     id="layer1"
     transform="translate(-51.06458,-130.43958)">
    <circle
       style="fill:none;fill-opacity:1;stroke:#ffffff;stroke-width:3.27073;stroke-linecap:round;stroke-linejoin:round;stroke-dasharray:none;stroke-opacity:1"
       id="path15-7"
       cx="68.368073"
       cy="147.74307"
       r="15.668127"
       inkscape:export-filename="special.svg"
       inkscape:export-xdpi="96"
       inkscape:export-ydpi="96" />
    <path
       style="fill:none;stroke:#ffffff;stroke-width:2.371;stroke-linecap:round;stroke-linejoin:round;stroke-opacity:1"
       d="m 60.511838,139.9677 15.800039,15.80004"
       id="path1" />
    <path
       style="fill:none;stroke:#ffffff;stroke-width:2.371;stroke-linecap:round;stroke-linejoin:round;stroke-opacity:1"
       d="M 76.794537,139.63405 60.994505,155.43408"
       id="path1-2" />
  </g>
</svg>
