<?xml version="1.0" encoding="UTF-8" standalone="no"?>
<!-- Created with Inkscape (http://www.inkscape.org/) -->

<svg
   width="34.606983mm"
   height="34.606983mm"
   viewBox="0 0 34.606983 34.606983"
   version="1.1"
   id="svg1"
   sodipodi:docname="special.svg"
   inkscape:export-filename="gamepad\dualshock_west.svg"
   inkscape:export-xdpi="96"
   inkscape:export-ydpi="96"
   xmlns:inkscape="http://www.inkscape.org/namespaces/inkscape"
   xmlns:sodipodi="http://sodipodi.sourceforge.net/DTD/sodipodi-0.dtd"
   xmlns="http://www.w3.org/2000/svg"
   xmlns:svg="http://www.w3.org/2000/svg">
  <sodipodi:namedview
     id="namedview1"
     pagecolor="#505050"
     bordercolor="#eeeeee"
     borderopacity="1"
     inkscape:showpageshadow="0"
     inkscape:pageopacity="0"
     inkscape:pagecheckerboard="0"
     inkscape:deskcolor="#505050"
     inkscape:document-units="mm"
     showgrid="false"
     showguides="false"
     inkscape:zoom="8.3597643"
     inkscape:cx="256.28713"
     inkscape:cy="304.85309"
     inkscape:window-width="2560"
     inkscape:window-height="1369"
     inkscape:window-x="-8"
     inkscape:window-y="462"
     inkscape:window-maximized="1"
     inkscape:current-layer="layer1" />
  <defs
     id="defs1" />
  <g
     inkscape:label="Layer 1"
     inkscape:groupmode="layer"
     id="layer1"
     transform="translate(-51.06458,-130.43958)">
    <circle
       style="fill:none;fill-opacity:1;stroke:#ffffff;stroke-width:3.27073;stroke-linecap:round;stroke-linejoin:round;stroke-dasharray:none;stroke-opacity:1"
       id="path15-7"
       cx="68.368073"
       cy="147.74307"
       r="15.668127"
       inkscape:export-filename="gamepad\dualshock_north.svg"
       inkscape:export-xdpi="96"
       inkscape:export-ydpi="96" />
    <path
       d="m 81.232859,128.66558 -6.612584,10.54985 v 8.24049 h -2.498647 v -7.97548 l -6.637823,-10.81486 h 2.763656 l 5.13611,8.40454 5.186587,-8.40454 z"
       id="text3"
       style="font-size:25.8446px;fill:#ffffff;stroke-width:19.3;stroke-linecap:round;stroke-linejoin:round"
       transform="scale(0.93170847,1.0732971)"
       aria-label="Y" />
  </g>
</svg>
